{
    "environment": "blue",
    "s3BucketName": "eu-bluegreen-config",
    "config": {
      "status": "active",
      "versions": [
          {
              "Resource": "Odyssys",
              "Version": "3.1.10"
          }
      ],
      "settings" : {
        "routes" : [{
            "DestinationCidrBlock" : "172.16.32.100/32",
            "NetworkInterfaceId" : "eni-0625eaab643b0aa75",
            "RouteTableId" : "rtb-9a7da2fd"
          }, {
            "DestinationCidrBlock" : "172.16.32.101/32",
            "NetworkInterfaceId" : "eni-00e6e00b3a064a54a",
            "RouteTableId" : "rtb-9a7da2fd"
          }, {
            "DestinationCidrBlock" : "172.16.32.100/32",
            "NetworkInterfaceId" : "eni-0625eaab643b0aa75",
            "RouteTableId" : "rtb-627ca305"
          }, {
            "DestinationCidrBlock" : "172.16.32.101/32",
            "NetworkInterfaceId" : "eni-00e6e00b3a064a54a",
            "RouteTableId" : "rtb-627ca305"
          }, {
            "DestinationCidrBlock" : "172.16.32.100/32",
            "NetworkInterfaceId" : "eni-0625eaab643b0aa75",
            "RouteTableId" : "rtb-6c7ca30b"
          }, {
            "DestinationCidrBlock" : "172.16.32.101/32",
            "NetworkInterfaceId" : "eni-00e6e00b3a064a54a",
            "RouteTableId" : "rtb-6c7ca30b"
          }, {
            "DestinationCidrBlock" : "172.16.32.100/32",
            "NetworkInterfaceId" : "eni-0625eaab643b0aa75",
            "RouteTableId" : "rtb-047ea163"
          }, {
            "DestinationCidrBlock" : "172.16.32.101/32",
            "NetworkInterfaceId" : "eni-00e6e00b3a064a54a",
            "RouteTableId" : "rtb-047ea163"
          }
        ],
        "allocations" : [{
            "AllocationId" : "eipalloc-0c810d69",
            "NetworkInterfaceId" : "eni-0625eaab643b0aa75",
            "PrivateIpAddress" : "10.2.4.200"
          }, {
            "AllocationId" : "eipalloc-09810d6c",
            "NetworkInterfaceId" : "eni-00e6e00b3a064a54a",
            "PrivateIpAddress" : "10.2.5.200"
          }, {
            "AllocationId" : "eipalloc-3bae225e",
            "NetworkInterfaceId" : "eni-0d1fed26bffa0d164",
            "PrivateIpAddress" : "10.2.4.153"
          }, { 
            "AllocationId" : "eipalloc-f6189493",
            "NetworkInterfaceId" : "eni-0d1fed26bffa0d164",
            "PrivateIpAddress" : "10.2.4.136"
          },
          {
            "AllocationId" : "eipalloc-0dcad176db8bcf391",
            "NetworkInterfaceId" : "eni-02a41570108dd010e",
            "PrivateIpAddress" : "10.2.4.201"
          }, {
            "AllocationId" : "eipalloc-0bb2750630f8823fa",
            "NetworkInterfaceId" : "eni-0318fa68b18a2d87b",
            "PrivateIpAddress" : "10.2.5.201"
          }, {
            "AllocationId" : "eipalloc-0b59fb0a4d679dd43",
            "NetworkInterfaceId" : "eni-0aea714bde944f0ad",
            "PrivateIpAddress" : "10.2.4.179"
          }, { 
            "AllocationId" : "eipalloc-077d354993260dd75",
            "NetworkInterfaceId" : "eni-0aea714bde944f0ad",
            "PrivateIpAddress" : "10.2.4.141"
          }
        ]
      }
  }
}
